…
#### User Numbers

##### Smart Features User Count

``` r
mod_smart %>%
  group_by(SmartFeatures)%>%
  summarise(UserCount=length(unique(Id))) %>%
  arrange(desc(UserCount))
```

    ## # A tibble: 30 × 2
    ##    SmartFeatures            UserCount
    ##    <chr>                        <int>
    ##  1 DailyCalories                   33
    ##  2 FairlyActiveMinutes             33
    ##  3 HourlyAverageIntensity          33
    ##  4 HourlyCalories                  33
    ##  5 HourlyStepTotal                 33
    ##  6 HourlyTotalIntensity            33
    ##  7 LightActiveDistance             33
    ##  8 LightlyActiveMinutes            33
    ##  9 LoggedActivitiesDistance        33
    ## 10 MinuteCalories                  33
    ## # ℹ 20 more rows
…
#### Total Use Count

##### Smart Feature Usage

``` r
mod_smart %>% count(SmartFeatures, sort = TRUE) %>% rename(TotalCount=n)
```

    ## # A tibble: 30 × 2
    ##    SmartFeatures          TotalCount
    ##    <chr>                       <int>
    ##  1 HeartRateSec              2483659
    ##  2 MinuteCalories            1326127
    ##  3 MinuteIntensity           1326127
    ##  4 MinuteSteps               1326127
    ##  5 MinutesMETs               1326127
    ##  6 MinSleepValue              187605
    ##  7 HourlyAverageIntensity      22104
    ##  8 HourlyCalories              22104
    ##  9 HourlyStepTotal             22104
    ## 10 HourlyTotalIntensity        22104
    ## # ℹ 20 more rows
…
#### Weekday Use Count

##### Total Weekday Smart Feature Usage

``` r
mod_smart %>% 
  mutate(Weekday=wday(Date, label=TRUE)) %>%
  group_by(Weekday, SmartFeatures) %>%
  summarise(TotalCount = n()) %>%
  arrange(Weekday, desc(TotalCount)) 
```

    ## # A tibble: 205 × 3
    ## # Groups:   Weekday [7]
    ##    Weekday SmartFeatures          TotalCount
    ##    <ord>   <chr>                       <int>
    ##  1 Sun     HeartRateSec               287147
    ##  2 Sun     MinuteCalories             173760
    ##  3 Sun     MinuteIntensity            173760
    ##  4 Sun     MinuteSteps                173760
    ##  5 Sun     MinutesMETs                173760
    ##  6 Sun     MinSleepValue               28762
    ##  7 Sun     HourlyAverageIntensity       2896
    ##  8 Sun     HourlyCalories               2896
    ##  9 Sun     HourlyStepTotal              2896
    ## 10 Sun     HourlyTotalIntensity         2896
    ## # ℹ 195 more rows

##### Total Weekday Minute-Wide Features Usage

``` r
mod_mins %>% 
  mutate(Weekday=wday(Date, label=TRUE)) %>%
  group_by(Weekday, Features) %>%
  summarise(TotalCount=n()) %>% 
  arrange(Weekday, desc(TotalCount)) 
```

    ## # A tibble: 21 × 3
    ## # Groups:   Weekday [7]
    ##    Weekday Features  TotalCount
    ##    <ord>   <chr>          <int>
    ##  1 Sun     Calories      173760
    ##  2 Sun     Intensity     173760
    ##  3 Sun     Steps         173760
    ##  4 Mon     Calories      171660
    ##  5 Mon     Intensity     171660
    ##  6 Mon     Steps         171660
    ##  7 Tue     Calories      168480
    ##  8 Tue     Intensity     168480
    ##  9 Tue     Steps         168480
    ## 10 Wed     Calories      214440
    ## # ℹ 11 more rows

#### Time Frequency

##### Hourly Frequency of Smart Features

``` r
mod_smart %>%
  mutate(Hour=hours(Time)) %>%
  group_by(Hour, SmartFeatures) %>%
  summarise(Total_Count=n()) %>%
  arrange(Hour, desc(Total_Count))%>%
  drop_na() 
```

    ## # A tibble: 284 × 3
    ## # Groups:   Hour [24]
    ##     Hour SmartFeatures          Total_Count
    ##    <dbl> <chr>                        <int>
    ##  1     0 HeartRateSec                 67902
    ##  2     0 MinuteCalories               56104
    ##  3     0 MinuteIntensity              56104
    ##  4     0 MinuteSteps                  56104
    ##  5     0 MinutesMETs                  56104
    ##  6     0 MinSleepValue                16795
    ##  7     0 HourlyAverageIntensity         939
    ##  8     0 HourlyCalories                 939
    ##  9     0 HourlyStepTotal                939
    ## 10     0 HourlyTotalIntensity           939
    ## # ℹ 274 more rows

##### Hourly Frequency and Average of Minute-Wide Features

``` r
mod_mins %>%
  mutate(Hour=hours(Time)) %>%
  group_by(Hour, Features) %>%
  summarise(Total_Count = n(), 
            Average=round(mean(Value), 2)) %>%
  arrange(Hour, desc(Total_Count))
```

    ## # A tibble: 72 × 4
    ## # Groups:   Hour [24]
    ##     Hour Features  Total_Count Average
    ##    <dbl> <chr>           <int>   <dbl>
    ##  1     0 Calories        54240    1.2 
    ##  2     0 Intensity       54240    0.04
    ##  3     0 Steps           54240    0.72
    ##  4     1 Calories        54180    1.17
    ##  5     1 Intensity       54180    0.02
    ##  6     1 Steps           54180    0.4 
    ##  7     2 Calories        54180    1.15
    ##  8     2 Intensity       54180    0.02
    ##  9     2 Steps           54180    0.29
    ## 10     3 Calories        54180    1.12
    ## # ℹ 62 more rows

##### Minute Frequency of Smart Features

``` r
mod_smart %>%
  mutate(Minutes=minutes(Time)) %>%
  group_by(Minutes, SmartFeatures) %>%
  summarise(Total_Count=n()) %>%
  drop_na() %>%
  arrange(Minutes, desc(Total_Count))
```

    ## # A tibble: 448 × 3
    ## # Groups:   Minutes [60]
    ##    Minutes SmartFeatures          Total_Count
    ##      <dbl> <chr>                        <int>
    ##  1       0 HeartRateSec                 41766
    ##  2       0 MinuteCalories               22106
    ##  3       0 MinuteIntensity              22106
    ##  4       0 MinuteSteps                  22106
    ##  5       0 MinutesMETs                  22106
    ##  6       0 HourlyAverageIntensity       22104
    ##  7       0 HourlyCalories               22104
    ##  8       0 HourlyStepTotal              22104
    ##  9       0 HourlyTotalIntensity         22104
    ## 10       0 MinSleepValue                 3131
    ## # ℹ 438 more rows

##### Minute Count & Average of Minute-Wide Features

``` r
mod_mins %>%
  mutate(Minutes=minutes(Time)) %>%
  group_by(Minutes, Features) %>%
  summarise(Total_Count = n(), 
            Average = round(mean(Value), 2)) %>%
  arrange(Minutes, desc(Total_Count))
```

    ## # A tibble: 180 × 4
    ## # Groups:   Minutes [60]
    ##    Minutes Features  Total_Count Average
    ##      <dbl> <chr>           <int>   <dbl>
    ##  1       0 Calories        21536    1.62
    ##  2       0 Intensity       21536    0.2 
    ##  3       0 Steps           21536    5.33
    ##  4       1 Calories        21536    1.63
    ##  5       1 Intensity       21536    0.2 
    ##  6       1 Steps           21536    5.36
    ##  7       2 Calories        21536    1.64
    ##  8       2 Intensity       21536    0.21
    ##  9       2 Steps           21536    5.55
    ## 10       3 Calories        21536    1.64
    ## # ℹ 170 more rows
…
