…
#### Daily Frequency

##### Daily Frequency of Feature Categories

``` r
mod_smart %>% 
  group_by(Date, Category) %>%
  summarise(TotalCount = n()) %>%
  arrange(Date, desc(TotalCount)) 
```

    ## # A tibble: 217 × 3
    ## # Groups:   Date [31]
    ##    Date       Category   TotalCount
    ##    <date>     <chr>           <int>
    ##  1 2016-04-12 Heart Rate      99149
    ##  2 2016-04-12 Intensity       49434
    ##  3 2016-04-12 Calories        48345
    ##  4 2016-04-12 Steps           48345
    ##  5 2016-04-12 METs            47520
    ##  6 2016-04-12 Sleep            6130
    ##  7 2016-04-12 Weight              8
    ##  8 2016-04-13 Heart Rate      72525
    ##  9 2016-04-13 Intensity       49434
    ## 10 2016-04-13 Calories        48345
    ## # ℹ 207 more rows

##### Frequency of Daily-Tracked Features

``` r
mod_smart %>% 
  filter(Interval=="Daily") %>%
  group_by(Date, SmartFeatures) %>%
  summarise(TotalCount = n()) %>%
  arrange(Date, desc(TotalCount)) 
```

    ## # A tibble: 591 × 3
    ## # Groups:   Date [31]
    ##    Date       SmartFeatures            TotalCount
    ##    <date>     <chr>                         <int>
    ##  1 2016-04-12 Calories                         33
    ##  2 2016-04-12 FairlyActiveMinutes              33
    ##  3 2016-04-12 LightActiveDistance              33
    ##  4 2016-04-12 LightlyActiveMinutes             33
    ##  5 2016-04-12 LoggedActivitiesDistance         33
    ##  6 2016-04-12 ModeratelyActiveDistance         33
    ##  7 2016-04-12 SedentaryActiveDistance          33
    ##  8 2016-04-12 SedentaryMinutes                 33
    ##  9 2016-04-12 TotalSteps                       33
    ## 10 2016-04-12 TrackerDistance                  33
    ## # ℹ 581 more rows

#### Weekday Frequency

##### Weekday Frequency of Feature Categories

``` r
mod_smart %>% 
  mutate(Weekday=wday(Date, label=TRUE)) %>%
  group_by(Weekday, Category) %>%
  summarise(TotalCount = n()) %>%
  arrange(Weekday, desc(TotalCount)) 
```

    ## # A tibble: 49 × 3
    ## # Groups:   Weekday [7]
    ##    Weekday Category   TotalCount
    ##    <ord>   <chr>           <int>
    ##  1 Sun     Heart Rate     287147
    ##  2 Sun     Intensity      180762
    ##  3 Sun     Calories       176777
    ##  4 Sun     Steps          176777
    ##  5 Sun     METs           173760
    ##  6 Sun     Sleep           28927
    ##  7 Sun     Weight             41
    ##  8 Mon     Heart Rate     289764
    ##  9 Mon     Intensity      178595
    ## 10 Mon     Calories       174644
    ## # ℹ 39 more rows

##### Weekday Frequency of Smart Features

``` r
mod_smart %>% 
  mutate(Weekday=wday(Date, label=TRUE)) %>%
  group_by(Weekday, SmartFeatures) %>%
  summarise(TotalCount = n()) %>%
  arrange(Weekday, desc(TotalCount)) 
```

    ## # A tibble: 184 × 3
    ## # Groups:   Weekday [7]
    ##    Weekday SmartFeatures       TotalCount
    ##    <ord>   <chr>                    <int>
    ##  1 Sun     HeartRate               287147
    ##  2 Sun     Calories                176777
    ##  3 Sun     Intensity               173760
    ##  4 Sun     METs                    173760
    ##  5 Sun     Steps                   173760
    ##  6 Sun     Sleep                    28762
    ##  7 Sun     TotalSteps                3017
    ##  8 Sun     AverageIntensity          2896
    ##  9 Sun     TotalIntensity            2896
    ## 10 Sun     FairlyActiveMinutes        121
    ## # ℹ 174 more rows

##### Weekday Frequency of Minute-Wide Features

``` r
mod_minWide %>% 
  mutate(Weekday=wday(Date, label=TRUE)) %>%
  group_by(Weekday, Features) %>%
  summarise(TotalCount=n()) %>% 
  arrange(Weekday, desc(TotalCount)) 
```

    ## # A tibble: 21 × 3
    ## # Groups:   Weekday [7]
    ##    Weekday Features  TotalCount
    ##    <ord>   <chr>          <int>
    ##  1 Sun     Calories      173760
    ##  2 Sun     Intensity     173760
    ##  3 Sun     Steps         173760
    ##  4 Mon     Calories      171660
    ##  5 Mon     Intensity     171660
    ##  6 Mon     Steps         171660
    ##  7 Tue     Calories      168480
    ##  8 Tue     Intensity     168480
    ##  9 Tue     Steps         168480
    ## 10 Wed     Calories      214440
    ## # ℹ 11 more rows

#### Time Frequency

##### Hourly Frequency of Smart Features

``` r
mod_smart %>%
  filter(Interval=="Hourly") %>%
  mutate(Hour=hours(Time)) %>%
  group_by(Hour, SmartFeatures) %>%
  summarise(Total_Count=n()) %>%
  arrange(Hour, desc(Total_Count))
```

    ## # A tibble: 96 × 3
    ## # Groups:   Hour [24]
    ##     Hour SmartFeatures    Total_Count
    ##    <dbl> <chr>                  <int>
    ##  1     0 AverageIntensity         939
    ##  2     0 Calories                 939
    ##  3     0 TotalIntensity           939
    ##  4     0 TotalSteps               939
    ##  5     1 AverageIntensity         933
    ##  6     1 Calories                 933
    ##  7     1 TotalIntensity           933
    ##  8     1 TotalSteps               933
    ##  9     2 AverageIntensity         933
    ## 10     2 Calories                 933
    ## # ℹ 86 more rows

##### Minute Frequency of Smart Features

``` r
mod_smart %>%
  filter(Interval=="Minute") %>%
  mutate(Minutes=minutes(Time)) %>%
  group_by(Minutes, SmartFeatures) %>%
  summarise(Total_Count=n()) %>%
  arrange(Minutes, desc(Total_Count))
```

    ## # A tibble: 300 × 3
    ## # Groups:   Minutes [60]
    ##    Minutes SmartFeatures Total_Count
    ##      <dbl> <chr>               <int>
    ##  1       0 Calories            22106
    ##  2       0 Intensity           22106
    ##  3       0 METs                22106
    ##  4       0 Steps               22106
    ##  5       0 Sleep                3131
    ##  6       1 Calories            22102
    ##  7       1 Intensity           22102
    ##  8       1 METs                22102
    ##  9       1 Steps               22102
    ## 10       1 Sleep                3127
    ## # ℹ 290 more rows

##### Minute Frequency & Average Value of Minute-Wide Features

``` r
mod_minWide %>%
  mutate(Minutes=minutes(Time)) %>%
  group_by(Minutes, Features) %>%
  summarise(Total_Count = n(), 
            Average = round(mean(Value), 2)) %>%
  arrange(Minutes, desc(Total_Count))
```

    ## # A tibble: 180 × 4
    ## # Groups:   Minutes [60]
    ##    Minutes Features  Total_Count Average
    ##      <dbl> <chr>           <int>   <dbl>
    ##  1       0 Calories        21536    1.62
    ##  2       0 Intensity       21536    0.2 
    ##  3       0 Steps           21536    5.33
    ##  4       1 Calories        21536    1.63
    ##  5       1 Intensity       21536    0.2 
    ##  6       1 Steps           21536    5.36
    ##  7       2 Calories        21536    1.64
    ##  8       2 Intensity       21536    0.21
    ##  9       2 Steps           21536    5.55
    ## 10       3 Calories        21536    1.64
    ## # ℹ 170 more rows
…
