…
#### Weekday Frequency of Feature Categories

``` r
mod_smart %>% 
  mutate(Weekday=wday(Date, label=TRUE)) %>%
  group_by(Weekday, Category) %>%
  summarise(TotalCount = n()) %>%
  arrange(Weekday, desc(TotalCount)) 
```

    ## # A tibble: 49 × 3
    ## # Groups:   Weekday [7]
    ##    Weekday Category   TotalCount
    ##    <ord>   <chr>           <int>
    ##  1 Sun     Heart Rate     287147
    ##  2 Sun     Intensity      180762
    ##  3 Sun     Calories       176777
    ##  4 Sun     Steps          176777
    ##  5 Sun     METs           173760
    ##  6 Sun     Sleep           28927
    ##  7 Sun     Weight             41
    ##  8 Mon     Heart Rate     289764
    ##  9 Mon     Intensity      178595
    ## 10 Mon     Calories       174644
    ## # ℹ 39 more rows
…
