…
#### User Count

##### Distinct Count of Users per Features

``` r
mod_smart %>%
  group_by(SmartFeatures)%>%
  summarise(UserCount=length(unique(Id))) %>%
  arrange(desc(UserCount))
```

    ## # A tibble: 30 × 2
    ##    SmartFeatures            UserCount
    ##    <chr>                        <int>
    ##  1 DailyCalories                   33
    ##  2 FairlyActiveMinutes             33
    ##  3 HourlyAverageIntensity          33
    ##  4 HourlyCalories                  33
    ##  5 HourlyStepTotal                 33
    ##  6 HourlyTotalIntensity            33
    ##  7 LightActiveDistance             33
    ##  8 LightlyActiveMinutes            33
    ##  9 LoggedActivitiesDistance        33
    ## 10 MinuteCalories                  33
    ## # … with 20 more rows
…
    ## # A tibble: 2 × 2
    ##   IsManualReport WeightUserCount
    ##   <chr>                    <int>
    ## 1 True                         5
    ## 2 False                        3

#### Frequency Count

##### Total Count of Smart Feature Usage

``` r
mod_smart %>% count(SmartFeatures, sort = TRUE) %>% rename(Frequency=n)
```

    ## # A tibble: 30 × 2
    ##    SmartFeatures          Frequency
    ##    <chr>                      <int>
    ##  1 HeartRateSec             2483659
    ##  2 MinuteCalories           1326127
    ##  3 MinuteIntensity          1326127
    ##  4 MinuteSteps              1326127
    ##  5 MinutesMETs              1326127
    ##  6 MinSleepValue             187605
    ##  7 HourlyAverageIntensity     22104
    ##  8 HourlyCalories             22104
    ##  9 HourlyStepTotal            22104
    ## 10 HourlyTotalIntensity       22104
    ## # … with 20 more rows
…
#### Date

##### Total Daily Count of Smart Features

``` r
mod_smart %>% 
  group_by(Date) %>%
  summarise(Count = n()) %>%
  arrange(Date, desc(Count))
```

    ## # A tibble: 31 × 2
    ##    Date        Count
    ##    <date>      <int>
    ##  1 2016-04-12 298962
    ##  2 2016-04-13 273036
    ##  3 2016-04-14 284515
    ##  4 2016-04-15 303194
    ##  5 2016-04-16 302622
    ##  6 2016-04-17 261334
    ##  7 2016-04-18 265752
    ##  8 2016-04-19 270836
    ##  9 2016-04-20 281110
    ## 10 2016-04-21 273551
    ## # … with 21 more rows

##### Total Daily Count of Smart Features Frequency

``` r
mod_smart %>% 
  group_by(Date, SmartFeatures) %>%
  summarise(Total_Count = n()) %>%
  arrange(Date, desc(Total_Count))
```

    ## # A tibble: 901 × 3
    ## # Groups:   Date [31]
    ##    Date       SmartFeatures          Total_Count
    ##    <date>     <chr>                        <int>
    ##  1 2016-04-12 HeartRateSec                 99149
    ##  2 2016-04-12 MinuteCalories               47520
    ##  3 2016-04-12 MinuteIntensity              47520
    ##  4 2016-04-12 MinuteSteps                  47520
    ##  5 2016-04-12 MinutesMETs                  47520
    ##  6 2016-04-12 MinSleepValue                 6091
    ##  7 2016-04-12 HourlyAverageIntensity         792
    ##  8 2016-04-12 HourlyCalories                 792
    ##  9 2016-04-12 HourlyStepTotal                792
    ## 10 2016-04-12 HourlyTotalIntensity           792
    ## # … with 891 more rows

##### Total Daily Count of Common Features

``` r
mod_mins %>% 
  group_by(Date) %>%
  summarise(Count = n()) %>%
  arrange(Date)
```

    ## # A tibble: 30 × 2
    ##    Date        Count
    ##    <date>      <int>
    ##  1 2016-04-13 142560
    ##  2 2016-04-14 142560
    ##  3 2016-04-15 141120
    ##  4 2016-04-16 138240
    ##  5 2016-04-17 138240
    ##  6 2016-04-18 138240
    ##  7 2016-04-19 138240
    ##  8 2016-04-20 138240
    ##  9 2016-04-21 138240
    ## 10 2016-04-22 138240
    ## # … with 20 more rows

##### Total Daily Count of Common Features Frequency

``` r
mod_mins %>% 
  group_by(Date, Features) %>%
  summarise(Total_Count = n()) %>%
  arrange(Date)
```

    ## # A tibble: 90 × 3
    ## # Groups:   Date [30]
    ##    Date       Features  Total_Count
    ##    <date>     <chr>           <int>
    ##  1 2016-04-13 Calories        47520
    ##  2 2016-04-13 Intensity       47520
    ##  3 2016-04-13 Steps           47520
    ##  4 2016-04-14 Calories        47520
    ##  5 2016-04-14 Intensity       47520
    ##  6 2016-04-14 Steps           47520
    ##  7 2016-04-15 Calories        47040
    ##  8 2016-04-15 Intensity       47040
    ##  9 2016-04-15 Steps           47040
    ## 10 2016-04-16 Calories        46080
    ## # … with 80 more rows
…
##### Weekday Frequency of Smart Features

``` r
mod_smart %>% 
  mutate(Weekday=wday(Date, label=TRUE)) %>%
  group_by(Weekday, SmartFeatures) %>%
  summarise(Frequency = n()) %>%
  arrange(Weekday, desc(Frequency)) 
```

    ## # A tibble: 205 × 3
    ## # Groups:   Weekday [7]
    ##    Weekday SmartFeatures          Frequency
    ##    <ord>   <chr>                      <int>
    ##  1 Sun     HeartRateSec              287147
    ##  2 Sun     MinuteCalories            173760
    ##  3 Sun     MinuteIntensity           173760
    ##  4 Sun     MinuteSteps               173760
    ##  5 Sun     MinutesMETs               173760
    ##  6 Sun     MinSleepValue              28762
    ##  7 Sun     HourlyAverageIntensity      2896
    ##  8 Sun     HourlyCalories              2896
    ##  9 Sun     HourlyStepTotal             2896
    ## 10 Sun     HourlyTotalIntensity        2896
    ## # … with 195 more rows

##### Daily Average of Common Features

``` r
mod_mins %>%
  group_by(Date, Features) %>%
  summarise(Average = mean(Value)) %>%
  arrange(Date, desc(Average))
```

    ## # A tibble: 90 × 3
    ## # Groups:   Date [30]
    ##    Date       Features  Average
    ##    <date>     <chr>       <dbl>
    ##  1 2016-04-13 Steps       4.80 
    ##  2 2016-04-13 Calories    1.57 
    ##  3 2016-04-13 Intensity   0.183
    ##  4 2016-04-14 Steps       5.37 
    ##  5 2016-04-14 Calories    1.64 
    ##  6 2016-04-14 Intensity   0.200
    ##  7 2016-04-15 Steps       5.23 
    ##  8 2016-04-15 Calories    1.65 
    ##  9 2016-04-15 Intensity   0.204
    ## 10 2016-04-16 Steps       5.91 
    ## # … with 80 more rows
…
##### Weekday Average of Common Features

``` r
mod_mins %>% 
  mutate(Weekday=wday(Date, label=TRUE)) %>%
  group_by(Weekday, Features) %>%
  summarise(Mean = round(mean(Value), 2)) %>%
  arrange(Weekday, desc(Mean)) 
```

    ## # A tibble: 21 × 3
    ## # Groups:   Weekday [7]
    ##    Weekday Features   Mean
    ##    <ord>   <chr>     <dbl>
    ##  1 Sun     Steps      4.8 
    ##  2 Sun     Calories   1.57
    ##  3 Sun     Intensity  0.18
    ##  4 Mon     Steps      5.38
    ##  5 Mon     Calories   1.62
    ##  6 Mon     Intensity  0.2 
    ##  7 Tue     Steps      5.64
    ##  8 Tue     Calories   1.65
    ##  9 Tue     Intensity  0.21
    ## 10 Wed     Steps      5.27
    ## # … with 11 more rows
#### Time

##### Hourly Frequency of Smart Features

``` r
## total feature count per hour
mod_smart %>%
  mutate(Hour=hours(Time)) %>%
  group_by(Hour, SmartFeatures) %>%
  summarise(Total_Count=n()) %>%
  arrange(Hour, desc(Total_Count))%>%
  drop_na() 
```

    ## # A tibble: 278 × 3
    ## # Groups:   Hour [24]
    ##     Hour SmartFeatures          Total_Count
    ##    <dbl> <chr>                        <int>
    ##  1     0 HeartRateSec                 67902
    ##  2     0 MinuteCalories               56104
    ##  3     0 MinuteIntensity              56104
    ##  4     0 MinuteSteps                  56104
    ##  5     0 MinutesMETs                  56104
    ##  6     0 MinSleepValue                16795
    ##  7     0 HourlyAverageIntensity         939
    ##  8     0 HourlyCalories                 939
    ##  9     0 HourlyStepTotal                939
    ## 10     0 HourlyTotalIntensity           939
    ## # … with 268 more rows

##### Hourly Frequency of Common Features

``` r
mod_mins %>%
  mutate(Hour=hours(Time)) %>%
  group_by(Hour, Features) %>%
  summarise(Total_Count = n()) %>%
  arrange(Hour, desc(Total_Count))
```

    ## # A tibble: 72 × 3
    ## # Groups:   Hour [24]
    ##     Hour Features  Total_Count
    ##    <dbl> <chr>           <int>
    ##  1     0 Calories        54240
    ##  2     0 Intensity       54240
    ##  3     0 Steps           54240
    ##  4     1 Calories        54180
    ##  5     1 Intensity       54180
    ##  6     1 Steps           54180
    ##  7     2 Calories        54180
    ##  8     2 Intensity       54180
    ##  9     2 Steps           54180
    ## 10     3 Calories        54180
    ## # … with 62 more rows

##### Hourly Average of Common Features

``` r
mod_mins %>%
  mutate(Hour=hours(Time)) %>%
  group_by(Hour, Features) %>%
  summarise(Average = round(mean(Value), 2)) %>%
  arrange(Hour, desc(Average))
```

    ## # A tibble: 72 × 3
    ## # Groups:   Hour [24]
    ##     Hour Features  Average
    ##    <dbl> <chr>       <dbl>
    ##  1     0 Calories     1.2 
    ##  2     0 Steps        0.72
    ##  3     0 Intensity    0.04
    ##  4     1 Calories     1.17
    ##  5     1 Steps        0.4 
    ##  6     1 Intensity    0.02
    ##  7     2 Calories     1.15
    ##  8     2 Steps        0.29
    ##  9     2 Intensity    0.02
    ## 10     3 Calories     1.12
    ## # … with 62 more rows

##### Minute Frequency of Smart Features

``` r
mod_smart %>%
  mutate(Minutes=minutes(Time)) %>%
  group_by(Minutes, SmartFeatures) %>%
  summarise(Total_Count=n()) %>%
  drop_na() %>%
  arrange(Minutes, desc(Total_Count))
```

    ## # A tibble: 432 × 3
    ## # Groups:   Minutes [60]
    ##    Minutes SmartFeatures          Total_Count
    ##      <dbl> <chr>                        <int>
    ##  1       0 HeartRateSec                 41766
    ##  2       0 MinuteCalories               22106
    ##  3       0 MinuteIntensity              22106
    ##  4       0 MinuteSteps                  22106
    ##  5       0 MinutesMETs                  22106
    ##  6       0 HourlyAverageIntensity       22104
    ##  7       0 HourlyCalories               22104
    ##  8       0 HourlyStepTotal              22104
    ##  9       0 HourlyTotalIntensity         22104
    ## 10       0 MinSleepValue                 3131
    ## # … with 422 more rows

##### Minute Frequency of Common Features

``` r
mod_mins %>%
  mutate(Minutes=minutes(Time)) %>%
  group_by(Minutes, Features) %>%
  summarise(Total_Count = n()) %>%
  arrange(Minutes, desc(Total_Count))
```

    ## # A tibble: 180 × 3
    ## # Groups:   Minutes [60]
    ##    Minutes Features  Total_Count
    ##      <dbl> <chr>           <int>
    ##  1       0 Calories        21536
    ##  2       0 Intensity       21536
    ##  3       0 Steps           21536
    ##  4       1 Calories        21536
    ##  5       1 Intensity       21536
    ##  6       1 Steps           21536
    ##  7       2 Calories        21536
    ##  8       2 Intensity       21536
    ##  9       2 Steps           21536
    ## 10       3 Calories        21536
    ## # … with 170 more rows

##### Minutes Average of Common Features

``` r
mod_mins %>%
  mutate(Minutes=minutes(Time)) %>%
  group_by(Minutes, Features) %>%
  summarise(Average = round(mean(Value), 2)) %>%
  arrange(Minutes, desc(Average)) 
```

    ## # A tibble: 180 × 3
    ## # Groups:   Minutes [60]
    ##    Minutes Features  Average
    ##      <dbl> <chr>       <dbl>
    ##  1       0 Steps        5.33
    ##  2       0 Calories     1.62
    ##  3       0 Intensity    0.2 
    ##  4       1 Steps        5.36
    ##  5       1 Calories     1.63
    ##  6       1 Intensity    0.2 
    ##  7       2 Steps        5.55
    ##  8       2 Calories     1.64
    ##  9       2 Intensity    0.21
    ## 10       3 Steps        5.49
    ## # … with 170 more rows
…
